<?xml version="1.0" standalone="no"?>
<!DOCTYPE svg PUBLIC "-//W3C//DTD SVG 20010904//EN"
 "http://www.w3.org/TR/2001/REC-SVG-20010904/DTD/svg10.dtd">
<svg version="1.0" xmlns="http://www.w3.org/2000/svg"
 width="640.000000pt" height="640.000000pt" viewBox="0 0 640.000000 640.000000"
 preserveAspectRatio="xMidYMid meet">

<g transform="translate(0.000000,640.000000) scale(0.100000,-0.100000)" stroke="none">
<path d="M3020 6394 c-660 -48 -1241 -262 -1743 -641 -67 -50 -148 -116 -179
-145 l-57 -53 92 -122 c126 -166 205 -294 318 -518 219 -434 374 -934 435
-1403 22 -169 22 -456 0 -627 -60 -463 -216 -967 -435 -1400 -110 -216 -191
-350 -306 -502 -44 -58 -86 -114 -93 -124 -12 -16 -4 -26 79 -96 200 -170 387
-294 634 -418 340 -172 677 -273 1065 -321 186 -23 548 -24 735 -1 645 78
1232 335 1718 752 70 59 77 69 65 84 -7 10 -49 66 -93 124 -267 353 -502 864
-639 1387 -160 611 -160 1050 0 1660 82 313 192 606 333 885 110 216 191 350
306 502 44 58 86 114 93 124 12 16 4 26 -79 96 -477 406 -1070 664 -1694 738
-130 15 -452 26 -555 19z m-209 -2215 c28 -6 75 -21 103 -34 47 -21 193 -115
258 -167 l27 -21 33 27 c92 75 210 144 291 171 73 23 98 27 165 23 91 -5 145
-31 204 -96 77 -85 102 -247 57 -367 -46 -123 -378 -518 -534 -636 -204 -154
-321 -124 -586 148 -167 171 -346 404 -380 493 -29 77 -26 199 7 270 47 102
137 171 246 189 29 5 54 9 55 10 1 0 25 -4 54 -10z m-345 -828 c91 -41 153
-160 139 -267 -14 -113 -115 -253 -221 -304 -134 -66 -250 -17 -294 124 -48
150 86 394 247 452 51 18 81 17 129 -5z m1633 -11 c58 -29 137 -114 171 -184
60 -121 63 -235 10 -319 -77 -121 -233 -113 -365 18 -136 136 -160 316 -58
434 69 81 150 98 242 51z m-1135 -434 c112 -47 176 -213 142 -373 -19 -94 -59
-172 -114 -229 -51 -52 -82 -69 -143 -83 -108 -24 -213 42 -258 162 -40 110
-23 269 42 380 31 52 106 123 150 142 41 18 139 19 181 1z m661 -7 c50 -24
124 -98 153 -155 61 -120 70 -292 20 -390 -54 -104 -149 -155 -247 -133 -61
14 -92 31 -143 83 -145 148 -166 423 -41 551 20 20 50 43 67 51 48 21 139 17
191 -7z"/>
<path d="M645 5121 c-347 -468 -550 -975 -621 -1551 -23 -184 -23 -556 0 -740
71 -575 274 -1083 620 -1550 102 -138 88 -136 176 -20 349 459 566 999 636
1580 19 165 22 508 5 675 -58 565 -253 1079 -590 1555 -35 50 -80 109 -100
132 l-37 41 -89 -122z"/>
<path d="M5639 5213 c-42 -45 -111 -141 -187 -256 -278 -421 -446 -886 -508
-1397 -20 -165 -22 -518 -5 -680 64 -595 284 -1151 641 -1620 88 -115 74 -117
176 20 344 462 549 974 620 1550 23 184 23 556 0 740 -70 570 -281 1098 -615
1543 -46 62 -86 115 -90 120 -4 4 -19 -5 -32 -20z"/>
</g>
</svg>
